\relax 
\providecommand\HyperFirstAtBeginDocument{\AtBeginDocument}
\HyperFirstAtBeginDocument{\ifx\hyper@anchor\@undefined
\global\let\oldcontentsline\contentsline
\gdef\contentsline#1#2#3#4{\oldcontentsline{#1}{#2}{#3}}
\global\let\oldnewlabel\newlabel
\gdef\newlabel#1#2{\newlabelxx{#1}#2}
\gdef\newlabelxx#1#2#3#4#5#6{\oldnewlabel{#1}{{#2}{#3}}}
\AtEndDocument{\ifx\hyper@anchor\@undefined
\let\contentsline\oldcontentsline
\let\newlabel\oldnewlabel
\fi}
\fi}
\global\let\hyper@last\relax 
\gdef\HyperFirstAtBeginDocument#1{#1}
\providecommand\HyField@AuxAddToFields[1]{}
\@writefile{toc}{\contentsline {section}{\numberline {1}Setup}{1}{section.1}}
\@writefile{lof}{\contentsline {figure}{\numberline {1}{\ignorespaces The Feynman diagrams contributing to ${\mathaccent "0365\relax {g}}{\mathaccent "0365\relax {g}}\to b\mathaccentV {bar}016{b}A$.\relax }}{2}{figure.caption.1}}
\providecommand*\caption@xref[2]{\@setref\relax\@undefined{#1}}
\newlabel{fig:gg_bba}{{1}{2}{The Feynman diagrams contributing to $\go \go \to b\bar {b}A$.\relax \relax }{figure.caption.1}{}}
\@writefile{toc}{\contentsline {section}{\numberline {2}Cut flow}{3}{section.2}}
\@writefile{lot}{\contentsline {table}{\numberline {1}{\ignorespaces The cut flow for the baseline selection in CMS XXX-XX-XXX for the NMSSM working point $m_{A}=30$\nobreakspace  {}GeV. The counts are normalized to the luminosity ${\cal  L}=20.2$/fb times cross section $\sigma = 1.276\times 10^{-3}$\nobreakspace  {}pb corresponding to 25.77 events which are taken to be the count before any cuts.\relax }}{3}{table.caption.2}}
\newlabel{table:nmssm_bba2mu}{{1}{3}{The cut flow for the baseline selection in CMS XXX-XX-XXX for the NMSSM working point $m_{A}=30$~GeV. The counts are normalized to the luminosity ${\cal L}=20.2$/fb times cross section $\sigma = 1.276\times 10^{-3}$~pb corresponding to 25.77 events which are taken to be the count before any cuts.\relax \relax }{table.caption.2}{}}
\@writefile{lof}{\contentsline {figure}{\numberline {2}{\ignorespaces Number of $b$ quarks found in each event the Monte Carlo level event file (\texttt  {Pythia 6.4} \texttt  {STDHEP} file) for the NMSSM working point $m_{A}=30$\nobreakspace  {}GeV. \relax }}{4}{figure.caption.3}}
\newlabel{fig:nbmc}{{2}{4}{Number of $b$ quarks found in each event the Monte Carlo level event file (\texttt {Pythia 6.4} \texttt {STDHEP} file) for the NMSSM working point $m_{A}=30$~GeV. \relax \relax }{figure.caption.3}{}}
\@writefile{lof}{\contentsline {figure}{\numberline {3}{\ignorespaces Number of $b$ jets found in each event in the reconstructed level event file (\texttt  {DelphesMA5tune} \texttt  {ROOT} file) for the NMSSM working point $m_{A}=30$\nobreakspace  {}GeV. \relax }}{4}{figure.caption.4}}
\newlabel{fig:nbrec}{{3}{4}{Number of $b$ jets found in each event in the reconstructed level event file (\texttt {DelphesMA5tune} \texttt {ROOT} file) for the NMSSM working point $m_{A}=30$~GeV. \relax \relax }{figure.caption.4}{}}
\@writefile{toc}{\contentsline {section}{\numberline {3}Distributions of observables}{4}{section.3}}
\@writefile{lof}{\contentsline {figure}{\numberline {4}{\ignorespaces Distribution of $p_{\mathrm  {T}}$ of all $b$ quarks found in each event in the Monte Carlo level event file (\texttt  {Pythia 6.4} \texttt  {STDHEP} file) for the NMSSM working point $m_{A}=30$\nobreakspace  {}GeV. \relax }}{5}{figure.caption.5}}
\newlabel{fig:ptbmc}{{4}{5}{Distribution of $p_{\mathrm {T}}$ of all $b$ quarks found in each event in the Monte Carlo level event file (\texttt {Pythia 6.4} \texttt {STDHEP} file) for the NMSSM working point $m_{A}=30$~GeV. \relax \relax }{figure.caption.5}{}}
\@writefile{lof}{\contentsline {figure}{\numberline {5}{\ignorespaces Distribution of $p_{\mathrm  {T}}$ of $b$ jets in in the reconstructed level event file (\texttt  {DelphesMA5tune} \texttt  {ROOT} file) for the NMSSM working point $m_{A}=30$\nobreakspace  {}GeV. \texttt  {DelphesMA5tune} has cut on jets below 20 GeV. \relax }}{5}{figure.caption.6}}
\newlabel{fig:ptbrec}{{5}{5}{Distribution of $p_{\mathrm {T}}$ of $b$ jets in in the reconstructed level event file (\texttt {DelphesMA5tune} \texttt {ROOT} file) for the NMSSM working point $m_{A}=30$~GeV. \texttt {DelphesMA5tune} has cut on jets below 20 GeV. \relax \relax }{figure.caption.6}{}}
\@writefile{lof}{\contentsline {figure}{\numberline {6}{\ignorespaces Distribution of $p_{\mathrm  {T}}$ of the hardest $b$ jet in each event in the reconstructed level event file (\texttt  {DelphesMA5tune} \texttt  {ROOT} file) for the NMSSM working point $m_{A}=30$\nobreakspace  {}GeV. \texttt  {DelphesMA5tune} has cut on jets below 20 GeV. \relax }}{6}{figure.caption.7}}
\newlabel{fig:pthardestbrec}{{6}{6}{Distribution of $p_{\mathrm {T}}$ of the hardest $b$ jet in each event in the reconstructed level event file (\texttt {DelphesMA5tune} \texttt {ROOT} file) for the NMSSM working point $m_{A}=30$~GeV. \texttt {DelphesMA5tune} has cut on jets below 20 GeV. \relax \relax }{figure.caption.7}{}}
\@writefile{lof}{\contentsline {figure}{\numberline {7}{\ignorespaces Distribution of ${\mathchoice {{\setbox \z@ \hbox {$\mathsurround \z@ \displaystyle E$}\setbox \tw@ \hbox {$\mathsurround \z@ \displaystyle /$}\dimen 4\wd \z@ \dimen@ \ht \tw@ \advance \dimen@ -\dp \tw@ \advance \dimen@ -\ht \z@ \advance \dimen@ \dp \z@ \divide \dimen@ \tw@ \advance \dimen@ -0\ht \tw@ \advance \dimen@ -0\dp \tw@ \dimen@ii 0\wd \z@ \raise -\dimen@ \hbox to\dimen 4{\hss \kern \dimen@ii \box \tw@ \kern -\dimen@ii \hss }\hbox to\z@ {\hss \hbox to\dimen 4{\hss \box \z@ \hss }}}}{{\setbox \z@ \hbox {$\mathsurround \z@ \textstyle E$}\setbox \tw@ \hbox {$\mathsurround \z@ \textstyle /$}\dimen 4\wd \z@ \dimen@ \ht \tw@ \advance \dimen@ -\dp \tw@ \advance \dimen@ -\ht \z@ \advance \dimen@ \dp \z@ \divide \dimen@ \tw@ \advance \dimen@ -0\ht \tw@ \advance \dimen@ -0\dp \tw@ \dimen@ii 0\wd \z@ \raise -\dimen@ \hbox to\dimen 4{\hss \kern \dimen@ii \box \tw@ \kern -\dimen@ii \hss }\hbox to\z@ {\hss \hbox to\dimen 4{\hss \box \z@ \hss }}}}{{\setbox \z@ \hbox {$\mathsurround \z@ \scriptstyle E$}\setbox \tw@ \hbox {$\mathsurround \z@ \scriptstyle /$}\dimen 4\wd \z@ \dimen@ \ht \tw@ \advance \dimen@ -\dp \tw@ \advance \dimen@ -\ht \z@ \advance \dimen@ \dp \z@ \divide \dimen@ \tw@ \advance \dimen@ -0\ht \tw@ \advance \dimen@ -0\dp \tw@ \dimen@ii 0\wd \z@ \raise -\dimen@ \hbox to\dimen 4{\hss \kern \dimen@ii \box \tw@ \kern -\dimen@ii \hss }\hbox to\z@ {\hss \hbox to\dimen 4{\hss \box \z@ \hss }}}}{{\setbox \z@ \hbox {$\mathsurround \z@ \scriptscriptstyle E$}\setbox \tw@ \hbox {$\mathsurround \z@ \scriptscriptstyle /$}\dimen 4\wd \z@ \dimen@ \ht \tw@ \advance \dimen@ -\dp \tw@ \advance \dimen@ -\ht \z@ \advance \dimen@ \dp \z@ \divide \dimen@ \tw@ \advance \dimen@ -0\ht \tw@ \advance \dimen@ -0\dp \tw@ \dimen@ii 0\wd \z@ \raise -\dimen@ \hbox to\dimen 4{\hss \kern \dimen@ii \box \tw@ \kern -\dimen@ii \hss }\hbox to\z@ {\hss \hbox to\dimen 4{\hss \box \z@ \hss }}}}}_{\mathrm  {T}}$ in each event in the reconstructed level event file (\texttt  {DelphesMA5tune} \texttt  {ROOT} file) for the NMSSM working point $m_{A}=30$\nobreakspace  {}GeV. \relax }}{6}{figure.caption.8}}
\newlabel{fig:metrec}{{7}{6}{Distribution of $\slashed {E}_{\mathrm {T}}$ in each event in the reconstructed level event file (\texttt {DelphesMA5tune} \texttt {ROOT} file) for the NMSSM working point $m_{A}=30$~GeV. \relax \relax }{figure.caption.8}{}}
\@writefile{toc}{\contentsline {section}{Appendices}{7}{section*.9}}
\@writefile{toc}{\contentsline {section}{\numberline {A}\texttt  {Pythia 6.4} settings}{7}{appendix.A}}
\newlabel{appendix:pythia}{{A}{7}{\texttt {Pythia 6.4} settings\relax }{appendix.A}{}}
\@writefile{toc}{\contentsline {section}{\numberline {B}\texttt  {delphesMA5tune} settings}{9}{appendix.B}}
\newlabel{appendix:delphesma5}{{B}{9}{\texttt {delphesMA5tune} settings\relax }{appendix.B}{}}
