\relax 
\providecommand\hyper@newdestlabel[2]{}
\providecommand\HyperFirstAtBeginDocument{\AtBeginDocument}
\HyperFirstAtBeginDocument{\ifx\hyper@anchor\@undefined
\global\let\oldcontentsline\contentsline
\gdef\contentsline#1#2#3#4{\oldcontentsline{#1}{#2}{#3}}
\global\let\oldnewlabel\newlabel
\gdef\newlabel#1#2{\newlabelxx{#1}#2}
\gdef\newlabelxx#1#2#3#4#5#6{\oldnewlabel{#1}{{#2}{#3}}}
\AtEndDocument{\ifx\hyper@anchor\@undefined
\let\contentsline\oldcontentsline
\let\newlabel\oldnewlabel
\fi}
\fi}
\global\let\hyper@last\relax 
\gdef\HyperFirstAtBeginDocument#1{#1}
\providecommand\HyField@AuxAddToFields[1]{}
\providecommand\HyField@AuxAddToCoFields[2]{}
\@writefile{toc}{\contentsline {section}{\numberline {1}Setup}{1}{section.1}}
\@writefile{toc}{\contentsline {section}{\numberline {2}\texttt  {T1bbbb} simplified model}{2}{section.2}}
\@writefile{lof}{\contentsline {figure}{\numberline {1}{\ignorespaces Diagram of the dominant SUSY production mechanism for the \texttt  {T1bbbb} working point.\relax }}{2}{figure.caption.1}}
\@writefile{lof}{\contentsline {figure}{\numberline {2}{\ignorespaces Distribution of values of $\alpha _T$ for the \texttt  {T1bbbb} model for working point $(m_{\mathaccentV {tilde}07Eg},\tmspace  +\thinmuskip {.1667em}m_{\mathaccentV {tilde}07E\chi ^0_1})=(900,\tmspace  +\thinmuskip {.1667em}500)$\nobreakspace  {}GeV. The number of events is normalized to the luminosity ${\cal  L}=11.5$/fb times cross section $\sigma = 0.060276$\nobreakspace  {}pb corresponding to 705.23 events, divided by 0.05 as was done by CMS. The requirement $H_T > 375$ GeV is imposed, and events are categorized according to the number of reconstructed jets in the event. The final bin contains all events with $\alpha _T > 3$. Left: results from \texttt  {MadAnalysis 5}. Right: CMS results from the \href  {https://twiki.cern.ch/twiki/bin/view/CMSPublic/PhysicsResultsSUS12028}{CMS-SUS-12-028 TWiki} \relax }}{3}{figure.caption.4}}
\newlabel{fig:T1bbbb_alphaT}{{2}{3}{Distribution of values of $\alpha _T$ for the \texttt {T1bbbb} model for working point $(m_{\tilde g},\,m_{\tilde \chi ^0_1})=(900,\,500)$~GeV. The number of events is normalized to the luminosity ${\cal L}=11.5$/fb times cross section $\sigma = 0.060276$~pb corresponding to 705.23 events, divided by 0.05 as was done by CMS. The requirement $H_T > 375$ GeV is imposed, and events are categorized according to the number of reconstructed jets in the event. The final bin contains all events with $\alpha _T > 3$. Left: results from \texttt {MadAnalysis 5}. Right: CMS results from the \href {https://twiki.cern.ch/twiki/bin/view/CMSPublic/PhysicsResultsSUS12028}{CMS-SUS-12-028 TWiki} \relax }{figure.caption.4}{}}
\@writefile{lof}{\contentsline {figure}{\numberline {3}{\ignorespaces Distribution of the number of jets for the \texttt  {T1bbbb} model working point after the lepton and photon cuts (left) and after the $\alpha _T>0.55$ cut (right).\relax }}{3}{figure.caption.5}}
\newlabel{fig:T1bbbb_njets}{{3}{3}{Distribution of the number of jets for the \texttt {T1bbbb} model working point after the lepton and photon cuts (left) and after the $\alpha _T>0.55$ cut (right).\relax }{figure.caption.5}{}}
\@writefile{lof}{\contentsline {figure}{\numberline {4}{\ignorespaces Distribution of $H_T$ for the \texttt  {T1bbbb} model working point after requiring at least 2 hard jets (left) and after the $\alpha _T>0.55$ cut (right).\relax }}{4}{figure.caption.6}}
\newlabel{fig:T1bbbb_ht}{{4}{4}{Distribution of $H_T$ for the \texttt {T1bbbb} model working point after requiring at least 2 hard jets (left) and after the $\alpha _T>0.55$ cut (right).\relax }{figure.caption.6}{}}
\@writefile{lof}{\contentsline {figure}{\numberline {5}{\ignorespaces Distribution of $\alpha _T$ for the \texttt  {T1bbbb} model working point after the lepton and photon cuts (left) and requiring at least 2 hard jets (right). The last bin contains all events with $\alpha _T\geq 3$. \relax }}{4}{figure.caption.7}}
\newlabel{fig:T1bbbb_alphat}{{5}{4}{Distribution of $\alpha _T$ for the \texttt {T1bbbb} model working point after the lepton and photon cuts (left) and requiring at least 2 hard jets (right). The last bin contains all events with $\alpha _T\geq 3$. \relax }{figure.caption.7}{}}
\@writefile{lot}{\contentsline {table}{\numberline {1}{\ignorespaces The cut flow for the baseline selection in CMS SUS-12-028 for the \texttt  {T1bbbb} working point $(m_{\mathaccentV {tilde}07Eg},\tmspace  +\thinmuskip {.1667em}m_{\mathaccentV {tilde}07E\chi ^0_1})=(900,\tmspace  +\thinmuskip {.1667em}500)$\nobreakspace  {}GeV. The counts are normalized to the luminosity ${\cal  L}=11.5$/fb times cross section $\sigma = 0.060276$\nobreakspace  {}pb corresponding to 705.23 events which are taken to be the count after the first cut, MET Cleaning.\relax }}{5}{table.caption.2}}
\providecommand*\caption@xref[2]{\@setref\relax\@undefined{#1}}
\newlabel{table:T1bbbb}{{1}{5}{The cut flow for the baseline selection in CMS SUS-12-028 for the \texttt {T1bbbb} working point $(m_{\tilde g},\,m_{\tilde \chi ^0_1})=(900,\,500)$~GeV. The counts are normalized to the luminosity ${\cal L}=11.5$/fb times cross section $\sigma = 0.060276$~pb corresponding to 705.23 events which are taken to be the count after the first cut, MET Cleaning.\relax }{table.caption.2}{}}
\@writefile{lot}{\contentsline {table}{\numberline {2}{\ignorespaces The signal region counts in CMS SUS-12-028 for the \texttt  {T1bbbb} scenario after all selection has been applied. Our own results displayed in column 3. These counts were determined by applying the signal region selection to the end of the cut flow featured in \autoref  {table:T1bbbb}.\relax }}{6}{table.caption.3}}
\@writefile{toc}{\contentsline {section}{\numberline {3}\texttt  {T2bb} simplified model}{7}{section.3}}
\@writefile{lof}{\contentsline {figure}{\numberline {6}{\ignorespaces Diagram of the dominant SUSY production mechanism for the \texttt  {T2bb} working point.\relax }}{7}{figure.caption.8}}
\@writefile{lot}{\contentsline {table}{\numberline {3}{\ignorespaces The cut flow for the baseline selection in CMS SUS-12-028 for the \texttt  {T2bb} working point $(m_{\mathaccentV {tilde}07Eq},\tmspace  +\thinmuskip {.1667em}m_{\mathaccentV {tilde}07E\chi ^0_1})=(900,\tmspace  +\thinmuskip {.1667em}500)$\nobreakspace  {}GeV. The counts are normalized to the luminosity ${\cal  L}=11.5$/fb times cross section $\sigma =0.847051$\nobreakspace  {}pb corresponding to 9910 events which are taken to be the count after the first cut, MET Cleaning.\relax }}{7}{table.caption.9}}
\newlabel{table:T2bb}{{3}{7}{The cut flow for the baseline selection in CMS SUS-12-028 for the \texttt {T2bb} working point $(m_{\tilde q},\,m_{\tilde \chi ^0_1})=(900,\,500)$~GeV. The counts are normalized to the luminosity ${\cal L}=11.5$/fb times cross section $\sigma =0.847051$~pb corresponding to 9910 events which are taken to be the count after the first cut, MET Cleaning.\relax }{table.caption.9}{}}
\@writefile{lot}{\contentsline {table}{\numberline {4}{\ignorespaces The signal region counts in CMS SUS-12-028 for the \texttt  {T2bb} scenario after all selection has been applied. Our own results displayed in column 3. These counts were determined by applying the signal region selection to the end of the cut flow featured in \autoref  {table:T2bb}.\relax }}{8}{table.caption.10}}
\@writefile{lof}{\contentsline {figure}{\numberline {7}{\ignorespaces Distribution of values of $\alpha _T$ for the \texttt  {T2bb} model for working point $(m_{\mathaccentV {tilde}07Eq},\tmspace  +\thinmuskip {.1667em}m_{\mathaccentV {tilde}07E\chi ^0_1})=(500,\tmspace  +\thinmuskip {.1667em}150)$\nobreakspace  {}GeV. The number of events is normalized to the luminosity ${\cal  L}=11.5$/fb times cross section $\sigma =0.847051$\nobreakspace  {}pb corresponding to 9910 events, divided by 0.05 as was done by CMS. The requirement $H_T > 375$ GeV is imposed, and events are categorized according to the number of reconstructed jets in the event. The final bin contains all events with $\alpha _T > 3$. Left: results from \texttt  {MadAnalysis 5}. Right: CMS results from the \href  {https://twiki.cern.ch/twiki/bin/view/CMSPublic/PhysicsResultsSUS12028}{CMS-SUS-12-028 TWiki} \relax }}{9}{figure.caption.11}}
\newlabel{fig:T2bb_alphaT}{{7}{9}{Distribution of values of $\alpha _T$ for the \texttt {T2bb} model for working point $(m_{\tilde q},\,m_{\tilde \chi ^0_1})=(500,\,150)$~GeV. The number of events is normalized to the luminosity ${\cal L}=11.5$/fb times cross section $\sigma =0.847051$~pb corresponding to 9910 events, divided by 0.05 as was done by CMS. The requirement $H_T > 375$ GeV is imposed, and events are categorized according to the number of reconstructed jets in the event. The final bin contains all events with $\alpha _T > 3$. Left: results from \texttt {MadAnalysis 5}. Right: CMS results from the \href {https://twiki.cern.ch/twiki/bin/view/CMSPublic/PhysicsResultsSUS12028}{CMS-SUS-12-028 TWiki} \relax }{figure.caption.11}{}}
\@writefile{lof}{\contentsline {figure}{\numberline {8}{\ignorespaces Distribution of the number of jets for the \texttt  {T2bb} model working point after the lepton and photon cuts (left) and after the $\alpha _T>0.55$ cut (right).\relax }}{9}{figure.caption.12}}
\newlabel{fig:T2bb_njets}{{8}{9}{Distribution of the number of jets for the \texttt {T2bb} model working point after the lepton and photon cuts (left) and after the $\alpha _T>0.55$ cut (right).\relax }{figure.caption.12}{}}
\@writefile{lof}{\contentsline {figure}{\numberline {9}{\ignorespaces Distribution of $H_T$ for the \texttt  {T2bb} model working point after requiring at least 2 hard jets (left) and after the $\alpha _T>0.55$ cut (right).\relax }}{10}{figure.caption.13}}
\newlabel{fig:T2bb_ht}{{9}{10}{Distribution of $H_T$ for the \texttt {T2bb} model working point after requiring at least 2 hard jets (left) and after the $\alpha _T>0.55$ cut (right).\relax }{figure.caption.13}{}}
\@writefile{lof}{\contentsline {figure}{\numberline {10}{\ignorespaces Distribution of $\alpha _T$ for the \texttt  {T2bb} model working point after the lepton and photon cuts (left) and requiring at least 2 hard jets (right). The last bin contains all events with $\alpha _T\geq 3$. \relax }}{10}{figure.caption.14}}
\newlabel{fig:T2bb_alphat}{{10}{10}{Distribution of $\alpha _T$ for the \texttt {T2bb} model working point after the lepton and photon cuts (left) and requiring at least 2 hard jets (right). The last bin contains all events with $\alpha _T\geq 3$. \relax }{figure.caption.14}{}}
\@writefile{toc}{\contentsline {section}{\numberline {4}\texttt  {T1} simplified model}{11}{section.4}}
\@writefile{lof}{\contentsline {figure}{\numberline {11}{\ignorespaces Diagram of the dominant SUSY production mechanism for the \texttt  {T1} working point.\relax }}{11}{figure.caption.15}}
\@writefile{lot}{\contentsline {table}{\numberline {5}{\ignorespaces The cut flow for the baseline selection in CMS SUS-12-028 for the \texttt  {T1} working point $(m_{\mathaccentV {tilde}07Eg},\tmspace  +\thinmuskip {.1667em}m_{\mathaccentV {tilde}07E\chi ^0_1})=(700,\tmspace  +\thinmuskip {.1667em}300)$\nobreakspace  {}GeV. The counts are normalized to the luminosity ${\cal  L}=11.5$/fb times cross section $\sigma =0.433971$\nobreakspace  {}pb corresponding to 5077 events which are taken to be the count after the first cut, MET Cleaning.\relax }}{11}{table.caption.16}}
\newlabel{table:T1}{{5}{11}{The cut flow for the baseline selection in CMS SUS-12-028 for the \texttt {T1} working point $(m_{\tilde g},\,m_{\tilde \chi ^0_1})=(700,\,300)$~GeV. The counts are normalized to the luminosity ${\cal L}=11.5$/fb times cross section $\sigma =0.433971$~pb corresponding to 5077 events which are taken to be the count after the first cut, MET Cleaning.\relax }{table.caption.16}{}}
\@writefile{lot}{\contentsline {table}{\numberline {6}{\ignorespaces The signal region counts in CMS SUS-12-028 for the \texttt  {T1} scenario after all selection has been applied. Our own results displayed in column 3. These counts were determined by applying the signal region selection to the end of the cut flow featured in \autoref  {table:T1}.\relax }}{12}{table.caption.17}}
\@writefile{lof}{\contentsline {figure}{\numberline {12}{\ignorespaces Distribution of the number of jets for the \texttt  {T1} model working point after the lepton and photon cuts (left) and after the $\alpha _T>0.55$ cut (right).\relax }}{13}{figure.caption.18}}
\newlabel{fig:T1_njets}{{12}{13}{Distribution of the number of jets for the \texttt {T1} model working point after the lepton and photon cuts (left) and after the $\alpha _T>0.55$ cut (right).\relax }{figure.caption.18}{}}
\@writefile{lof}{\contentsline {figure}{\numberline {13}{\ignorespaces Distribution of $H_T$ for the \texttt  {T1} model working point after requiring at least 2 hard jets (left) and after the $\alpha _T>0.55$ cut (right).\relax }}{13}{figure.caption.19}}
\newlabel{fig:T1_ht}{{13}{13}{Distribution of $H_T$ for the \texttt {T1} model working point after requiring at least 2 hard jets (left) and after the $\alpha _T>0.55$ cut (right).\relax }{figure.caption.19}{}}
\@writefile{lof}{\contentsline {figure}{\numberline {14}{\ignorespaces Distribution of $\alpha _T$ for the \texttt  {T1} model working point after the lepton and photon cuts (left) and requiring at least 2 hard jets (right). The last bin contains all events with $\alpha _T\geq 3$. \relax }}{14}{figure.caption.20}}
\newlabel{fig:T1_alphat}{{14}{14}{Distribution of $\alpha _T$ for the \texttt {T1} model working point after the lepton and photon cuts (left) and requiring at least 2 hard jets (right). The last bin contains all events with $\alpha _T\geq 3$. \relax }{figure.caption.20}{}}
\@writefile{toc}{\contentsline {section}{\numberline {5}\texttt  {T1tttt} simplified model}{15}{section.5}}
\@writefile{lof}{\contentsline {figure}{\numberline {15}{\ignorespaces Diagram of the dominant SUSY production mechanism for the \texttt  {T1tttt} working point.\relax }}{15}{figure.caption.21}}
\@writefile{lot}{\contentsline {table}{\numberline {7}{\ignorespaces The cut flow for the baseline selection in CMS SUS-12-028 for the \texttt  {T1tttt} working point $(m_{\mathaccentV {tilde}07Eg},\tmspace  +\thinmuskip {.1667em}m_{\mathaccentV {tilde}07E\chi ^0_1})=(850,\tmspace  +\thinmuskip {.1667em}250)$\nobreakspace  {}GeV. The counts are normalized to the luminosity ${\cal  L}=11.5$/fb times cross section $\sigma =0.0966803$\nobreakspace  {}pb corresponding to 1131 events which are taken to be the count after the first cut, MET Cleaning.\relax }}{15}{table.caption.22}}
\newlabel{table:T1tttt}{{7}{15}{The cut flow for the baseline selection in CMS SUS-12-028 for the \texttt {T1tttt} working point $(m_{\tilde g},\,m_{\tilde \chi ^0_1})=(850,\,250)$~GeV. The counts are normalized to the luminosity ${\cal L}=11.5$/fb times cross section $\sigma =0.0966803$~pb corresponding to 1131 events which are taken to be the count after the first cut, MET Cleaning.\relax }{table.caption.22}{}}
\@writefile{lot}{\contentsline {table}{\numberline {8}{\ignorespaces The signal region counts in CMS SUS-12-028 for the \texttt  {T1tttt} scenario after all selection has been applied. Our own results displayed in column 3. These counts were determined by applying the signal region selection to the end of the cut flow featured in \autoref  {table:T1tttt}.\relax }}{16}{table.caption.23}}
\@writefile{lof}{\contentsline {figure}{\numberline {16}{\ignorespaces Distribution of the number of jets for the \texttt  {T1tttt} model working point after the lepton and photon cuts (left) and after the $\alpha _T>0.55$ cut (right).\relax }}{17}{figure.caption.24}}
\newlabel{fig:T1tttt_njets}{{16}{17}{Distribution of the number of jets for the \texttt {T1tttt} model working point after the lepton and photon cuts (left) and after the $\alpha _T>0.55$ cut (right).\relax }{figure.caption.24}{}}
\@writefile{lof}{\contentsline {figure}{\numberline {17}{\ignorespaces Distribution of $H_T$ for the \texttt  {T1tttt} model working point after requiring at least 2 hard jets (left) and after the $\alpha _T>0.55$ cut (right).\relax }}{17}{figure.caption.25}}
\newlabel{fig:T1tttt_ht}{{17}{17}{Distribution of $H_T$ for the \texttt {T1tttt} model working point after requiring at least 2 hard jets (left) and after the $\alpha _T>0.55$ cut (right).\relax }{figure.caption.25}{}}
\@writefile{lof}{\contentsline {figure}{\numberline {18}{\ignorespaces Distribution of $\alpha _T$ for the \texttt  {T1tttt} model working point after the lepton and photon cuts (left) and requiring at least 2 hard jets (right). The last bin contains all events with $\alpha _T\geq 3$. \relax }}{18}{figure.caption.26}}
\newlabel{fig:T1tttt_alphat}{{18}{18}{Distribution of $\alpha _T$ for the \texttt {T1tttt} model working point after the lepton and photon cuts (left) and requiring at least 2 hard jets (right). The last bin contains all events with $\alpha _T\geq 3$. \relax }{figure.caption.26}{}}
\@writefile{toc}{\contentsline {section}{\numberline {6}\texttt  {T2} simplified model}{19}{section.6}}
\@writefile{lof}{\contentsline {figure}{\numberline {19}{\ignorespaces Diagram of the dominant SUSY production mechanism for the \texttt  {T2} working point.\relax }}{19}{figure.caption.27}}
\@writefile{lot}{\contentsline {table}{\numberline {9}{\ignorespaces The cut flow for the baseline selection in CMS SUS-12-028 for the \texttt  {T2} working point $(m_{\mathaccentV {tilde}07Eq},\tmspace  +\thinmuskip {.1667em}m_{\mathaccentV {tilde}07E\chi ^0_1})=(600,\tmspace  +\thinmuskip {.1667em}250)$\nobreakspace  {}GeV. The counts are normalized to the luminosity ${\cal  L}=11.5$/fb times cross section $\sigma =0.244862$\nobreakspace  {}pb corresponding to 2865 events which are taken to be the count after the first cut, MET Cleaning.\relax }}{19}{table.caption.28}}
\newlabel{table:T2}{{9}{19}{The cut flow for the baseline selection in CMS SUS-12-028 for the \texttt {T2} working point $(m_{\tilde q},\,m_{\tilde \chi ^0_1})=(600,\,250)$~GeV. The counts are normalized to the luminosity ${\cal L}=11.5$/fb times cross section $\sigma =0.244862$~pb corresponding to 2865 events which are taken to be the count after the first cut, MET Cleaning.\relax }{table.caption.28}{}}
\@writefile{lot}{\contentsline {table}{\numberline {10}{\ignorespaces The signal region counts in CMS SUS-12-028 for the \texttt  {T2} scenario after all selection has been applied. Our own results displayed in column 3. These counts were determined by applying the signal region selection to the end of the cut flow featured in \autoref  {table:T2}.\relax }}{20}{table.caption.29}}
\@writefile{lof}{\contentsline {figure}{\numberline {20}{\ignorespaces Distribution of the number of jets for the \texttt  {T2} model working point after the lepton and photon cuts (left) and after the $\alpha _T>0.55$ cut (right).\relax }}{21}{figure.caption.30}}
\newlabel{fig:T2_njets}{{20}{21}{Distribution of the number of jets for the \texttt {T2} model working point after the lepton and photon cuts (left) and after the $\alpha _T>0.55$ cut (right).\relax }{figure.caption.30}{}}
\@writefile{lof}{\contentsline {figure}{\numberline {21}{\ignorespaces Distribution of $H_T$ for the \texttt  {T2} model working point after requiring at least 2 hard jets (left) and after the $\alpha _T>0.55$ cut (right).\relax }}{21}{figure.caption.31}}
\newlabel{fig:T2_ht}{{21}{21}{Distribution of $H_T$ for the \texttt {T2} model working point after requiring at least 2 hard jets (left) and after the $\alpha _T>0.55$ cut (right).\relax }{figure.caption.31}{}}
\@writefile{lof}{\contentsline {figure}{\numberline {22}{\ignorespaces Distribution of $\alpha _T$ for the \texttt  {T2} model working point after the lepton and photon cuts (left) and requiring at least 2 hard jets (right). The last bin contains all events with $\alpha _T\geq 3$. \relax }}{22}{figure.caption.32}}
\newlabel{fig:T2_alphat}{{22}{22}{Distribution of $\alpha _T$ for the \texttt {T2} model working point after the lepton and photon cuts (left) and requiring at least 2 hard jets (right). The last bin contains all events with $\alpha _T\geq 3$. \relax }{figure.caption.32}{}}
\@writefile{toc}{\contentsline {section}{\numberline {7}\texttt  {T2tt} simplified model}{23}{section.7}}
\@writefile{lof}{\contentsline {figure}{\numberline {23}{\ignorespaces Diagram of the dominant SUSY production mechanism for the \texttt  {T2tt} working point.\relax }}{23}{figure.caption.33}}
\@writefile{lot}{\contentsline {table}{\numberline {11}{\ignorespaces The cut flow for the baseline selection in CMS SUS-12-028 for the \texttt  {T2tt} working point $(m_{\mathaccentV {tilde}07Eq},\tmspace  +\thinmuskip {.1667em}m_{\mathaccentV {tilde}07E\chi ^0_1})=(400,\tmspace  +\thinmuskip {.1667em}0)$\nobreakspace  {}GeV. The counts are normalized to the luminosity ${\cal  L}=11.5$/fb times cross section $\sigma =3.54338$\nobreakspace  {}pb corresponding to 41458 events which are taken to be the count after the first cut, MET Cleaning.\relax }}{23}{table.caption.34}}
\newlabel{table:T2tt}{{11}{23}{The cut flow for the baseline selection in CMS SUS-12-028 for the \texttt {T2tt} working point $(m_{\tilde q},\,m_{\tilde \chi ^0_1})=(400,\,0)$~GeV. The counts are normalized to the luminosity ${\cal L}=11.5$/fb times cross section $\sigma =3.54338$~pb corresponding to 41458 events which are taken to be the count after the first cut, MET Cleaning.\relax }{table.caption.34}{}}
\@writefile{lot}{\contentsline {table}{\numberline {12}{\ignorespaces The signal region counts in CMS SUS-12-028 for the \texttt  {T2tt} scenario after all selection has been applied. Our own results displayed in column 3. These counts were determined by applying the signal region selection to the end of the cut flow featured in \autoref  {table:T2tt}.\relax }}{24}{table.caption.35}}
\@writefile{lof}{\contentsline {figure}{\numberline {24}{\ignorespaces Distribution of the number of jets for the \texttt  {T2tt} model working point after the lepton and photon cuts (left) and after the $\alpha _T>0.55$ cut (right).\relax }}{25}{figure.caption.36}}
\newlabel{fig:T2tt_njets}{{24}{25}{Distribution of the number of jets for the \texttt {T2tt} model working point after the lepton and photon cuts (left) and after the $\alpha _T>0.55$ cut (right).\relax }{figure.caption.36}{}}
\@writefile{lof}{\contentsline {figure}{\numberline {25}{\ignorespaces Distribution of $H_T$ for the \texttt  {T2tt} model working point after requiring at least 2 hard jets (left) and after the $\alpha _T>0.55$ cut (right).\relax }}{25}{figure.caption.37}}
\newlabel{fig:T2tt_ht}{{25}{25}{Distribution of $H_T$ for the \texttt {T2tt} model working point after requiring at least 2 hard jets (left) and after the $\alpha _T>0.55$ cut (right).\relax }{figure.caption.37}{}}
\@writefile{lof}{\contentsline {figure}{\numberline {26}{\ignorespaces Distribution of $\alpha _T$ for the \texttt  {T2tt} model working point after the lepton and photon cuts (left) and requiring at least 2 hard jets (right). The last bin contains all events with $\alpha _T\geq 3$. \relax }}{26}{figure.caption.38}}
\newlabel{fig:T2tt_alphat}{{26}{26}{Distribution of $\alpha _T$ for the \texttt {T2tt} model working point after the lepton and photon cuts (left) and requiring at least 2 hard jets (right). The last bin contains all events with $\alpha _T\geq 3$. \relax }{figure.caption.38}{}}
\@writefile{toc}{\contentsline {section}{\numberline {8}Exclusion Limits}{27}{section.8}}
\@writefile{lof}{\contentsline {figure}{\numberline {27}{\ignorespaces The 95\% CL exclusion limits (in red) reproduced with our {\sc  {MadAnalysis}}\nobreakspace  {}5 implementation compared to the official limits (in blue) from \href  {https://twiki.cern.ch/twiki/bin/view/CMSPublic/PhysicsResultsSUS12028}{CMS-SUS-12-028}. These limits are for the simplified model \texttt  {T2}. \relax }}{28}{figure.caption.39}}
\newlabel{fig:limitplots}{{27}{28}{The 95\% CL exclusion limits (in red) reproduced with our {\sc {MadAnalysis}}~5 implementation compared to the official limits (in blue) from \href {https://twiki.cern.ch/twiki/bin/view/CMSPublic/PhysicsResultsSUS12028}{CMS-SUS-12-028}. These limits are for the simplified model \texttt {T2}. \relax }{figure.caption.39}{}}
